MarketPulse AI: Business Exit Risk Analysis
…
industry_churn <- map_dfr(year_rows, clean_year_block, raw_data = raw) %>%
  filter(industry != "All Industries", industry != "Currently Unknown") %>%
  mutate(
    year_end = as.numeric(str_sub(year, 1, 4)) + 1,
    net_churn_rate = exit_rate - entry_rate
  ) %>%
  relocate(year_end, .after = year)

industry_churn

# A tibble: 76 × 16
   year    year_end industry        operating_start entries_births entries_other
   <chr>      <dbl> <chr>                     <dbl>          <dbl>         <dbl>
 1 2021-22     2022 Agriculture, F…          173062          10559          4955
 2 2021-22     2022 Mining                     8015            828           356
 3 2021-22     2022 Manufacturing             85793           9359          3420
 4 2021-22     2022 Electricity, G…            7947           1005           312
 5 2021-22     2022 Construction             410646          53819         26532
 6 2021-22     2022 Wholesale Trade           80423           8708          2994
 7 2021-22     2022 Retail Trade             149024          21520          6341
 8 2021-22     2022 Accommodation …          105947          15644          4255
 9 2021-22     2022 Transport, Pos…          196839          38058         16795
10 2021-22     2022 Information Me…           23537           3064          1319
# ℹ 66 more rows
# ℹ 10 more variables: entries_total <dbl>, exits_cancellations <dbl>,
#   exits_other <dbl>, exits_total <dbl>, operating_end <dbl>, change <dbl>,
#   pct_change <dbl>, entry_rate <dbl>, exit_rate <dbl>, net_churn_rate <dbl>
…
lga_yoy <- lga_panel %>%
  select(year, state, lga_code, lga_name, industry_code, industry_label, total_businesses) %>%
  pivot_wider(names_from = year, values_from = total_businesses, names_prefix = "y") %>%
  mutate(
    pct_change_24_25 = (y2025 - y2024) / y2024 * 100,
    pct_change_23_24 = (y2024 - y2023) / y2023 * 100
  )

lga_yoy

# A tibble: 10,586 × 10
   state        lga_code lga_name industry_code industry_label y2025 y2024 y2023
   <chr>           <dbl> <chr>    <chr>         <chr>          <dbl> <dbl> <dbl>
 1 New South W…    10050 Albury   A             Agriculture, …   263   254   257
 2 New South W…    10050 Albury   B             Mining             3     3     4
 3 New South W…    10050 Albury   C             Manufacturing    206   212   203
 4 New South W…    10050 Albury   D             Electricity, …   145   144   141
 5 New South W…    10050 Albury   E             Construction    1017  1025  1017
 6 New South W…    10050 Albury   F             Wholesale Tra…   134   141   151
 7 New South W…    10050 Albury   G             Retail Trade     282   285   291
 8 New South W…    10050 Albury   H             Accommodation…   258   267   250
 9 New South W…    10050 Albury   I             Transport, Po…   379   354   345
10 New South W…    10050 Albury   J             Information M…    27    26    24
# ℹ 10,576 more rows
# ℹ 2 more variables: pct_change_24_25 <dbl>, pct_change_23_24 <dbl>
…
